7 Basic statistical tests | A Gentle Introduction to Data Science with R
…
The non-parametric test gave us the same conclusion.

CAUTION: although we obtained the same results with both the parametric t-test and non-parametric signed-rank test, their use cases are VERY different. We prefer to use parametric tests because they give us more statistical power. Only use non-parametric tests with sample sizes less than 30 and if the data is not normally distributed.

Does Asia and Africa differ in life expectancy in 1952? To compare two groups of data, we need a two-sample t-test.

As.Af <- gapminder %>% 
  filter(year==1952) %>% 
  filter(continent %in% c("Africa", "Asia"))
As.Af

## # A tibble: 85 x 6
##    country      continent  year lifeExp      pop gdpPercap
##    <fct>        <fct>     <int>   <dbl>    <int>     <dbl>
##  1 Afghanistan  Asia       1952    28.8  8425333      779.
##  2 Algeria      Africa     1952    43.1  9279525     2449.
##  3 Angola       Africa     1952    30.0  4232095     3521.
##  4 Bahrain      Asia       1952    50.9   120447     9867.
##  5 Bangladesh   Asia       1952    37.5 46886859      684.
##  6 Benin        Africa     1952    38.2  1738315     1063.
##  7 Botswana     Africa     1952    47.6   442308      851.
##  8 Burkina Faso Africa     1952    32.0  4469979      543.
##  9 Burundi      Africa     1952    39.0  2445618      339.
## 10 Cambodia     Asia       1952    39.4  4693836      368.
## # … with 75 more rows
…
Most of the countries have improved, while a few have decreased life expectancy.

Before testing this observation, we should reorganize our data into a nice (wide) shape.

Africa.wide <- spread(Africa, year, lifeExp)
Africa.wide

## # A tibble: 52 x 13
##    country `1952` `1957` `1962` `1967` `1972` `1977` `1982` `1987` `1992` `1997`
##    <fct>    <dbl>  <dbl>  <dbl>  <dbl>  <dbl>  <dbl>  <dbl>  <dbl>  <dbl>  <dbl>
##  1 Algeria   43.1   45.7   48.3   51.4   54.5   58.0   61.4   65.8   67.7   69.2
##  2 Angola    30.0   32.0   34     36.0   37.9   39.5   39.9   39.9   40.6   41.0
##  3 Benin     38.2   40.4   42.6   44.9   47.0   49.2   50.9   52.3   53.9   54.8
##  4 Botswa…   47.6   49.6   51.5   53.3   56.0   59.3   61.5   63.6   62.7   52.6
##  5 Burkin…   32.0   34.9   37.8   40.7   43.6   46.1   48.1   49.6   50.3   50.3
##  6 Burundi   39.0   40.5   42.0   43.5   44.1   45.9   47.5   48.2   44.7   45.3
##  7 Camero…   38.5   40.4   42.6   44.8   47.0   49.4   53.0   55.0   54.3   52.2
##  8 Centra…   35.5   37.5   39.5   41.5   43.5   46.8   48.3   50.5   49.4   46.1
##  9 Chad      38.1   39.9   41.7   43.6   45.6   47.4   49.5   51.1   51.7   51.6
## 10 Comoros   40.7   42.5   44.5   46.5   48.9   50.9   52.9   54.9   57.9   60.7
## # … with 42 more rows, and 2 more variables: 2002 <dbl>, 2007 <dbl>
…
