8 Comparing multiple means | A Gentle Introduction to Data Science with R
…
Note: The first argument for cut() takes a vector, the second takes the vector for cutoff thresholds, and the third are names of the bins defined by the cutoffs.

We can now merge this new data with gapminder. The main idea of merging is to add the new variables as columns. The identifier of our observations will be country. Since we are taking data from different sources, a given country might exist in one data frame but not the other. Furthermore, the two data sets might use different names for the countries. Before merging, let’s check the data we want to merge. Note that str_detect() finds all instances where a particular string is in a column.

# let's check how they name Korea
dem07 %>% filter(str_detect(country, 'Korea'))

##       country X2007  demLev
## 1 North Korea   -10  LowDem
## 2 South Korea     8 HighDem

gapminder %>% filter(str_detect(country, 'Korea'))

## # A tibble: 24 x 6
##    country          continent  year lifeExp      pop gdpPercap
##    <fct>            <fct>     <int>   <dbl>    <int>     <dbl>
##  1 Korea, Dem. Rep. Asia       1952    50.1  8865488     1088.
##  2 Korea, Dem. Rep. Asia       1957    54.1  9411381     1571.
##  3 Korea, Dem. Rep. Asia       1962    56.7 10917494     1622.
##  4 Korea, Dem. Rep. Asia       1967    59.9 12617009     2144.
##  5 Korea, Dem. Rep. Asia       1972    64.0 14781241     3702.
##  6 Korea, Dem. Rep. Asia       1977    67.2 16325320     4106.
##  7 Korea, Dem. Rep. Asia       1982    69.1 17647518     4107.
##  8 Korea, Dem. Rep. Asia       1987    70.6 19067554     4106.
##  9 Korea, Dem. Rep. Asia       1992    70.0 20711375     3726.
## 10 Korea, Dem. Rep. Asia       1997    67.7 21585105     1691.
## # … with 14 more rows
…
