3 Data frames | A Gentle Introduction to Data Science with R
…
Now load it:

library(tidyverse)

Now we can print gapminder to screen! It is a tibble (and also a regular data frame) and the tidyverse provides a nice print method that shows the most important stuff and doesn’t fill up your Console. The tidyverse offers a special case of R’s default data frame: the tibble.

# this is a comment
# anything that follows the pound sign (#) is not run
class(gapminder)  # the tibble is also a data frame

## [1] "tbl_df"     "tbl"        "data.frame"

gapminder

## # A tibble: 1,704 x 6
##    country     continent  year lifeExp      pop gdpPercap
##    <fct>       <fct>     <int>   <dbl>    <int>     <dbl>
##  1 Afghanistan Asia       1952    28.8  8425333      779.
##  2 Afghanistan Asia       1957    30.3  9240934      821.
##  3 Afghanistan Asia       1962    32.0 10267083      853.
##  4 Afghanistan Asia       1967    34.0 11537966      836.
##  5 Afghanistan Asia       1972    36.1 13079460      740.
##  6 Afghanistan Asia       1977    38.4 14880372      786.
##  7 Afghanistan Asia       1982    39.9 12881816      978.
##  8 Afghanistan Asia       1987    40.8 13867957      852.
##  9 Afghanistan Asia       1992    41.7 16317921      649.
## 10 Afghanistan Asia       1997    41.8 22227415      635.
## # … with 1,694 more rows
…
Here’s a fun bit of trivia: dplyr stands for “data frame pliers”.

3.3.0.1 Load dplyr and gapminder

I choose to load the tidyverse, which loads dplyr among other packages we use incidentally below. Also load gapminder. If you don’t have these packages, use the install.packages('pkg_name') command. Don’t worry too much if you have warning messages.

library(tidyverse)
library(gapminder)

The gapminder data frame is a special kind of data frame: a tibble. You can treat tibbles just like a data frame.

gapminder

## # A tibble: 1,704 x 6
##    country     continent  year lifeExp      pop gdpPercap
##    <fct>       <fct>     <int>   <dbl>    <int>     <dbl>
##  1 Afghanistan Asia       1952    28.8  8425333      779.
##  2 Afghanistan Asia       1957    30.3  9240934      821.
##  3 Afghanistan Asia       1962    32.0 10267083      853.
##  4 Afghanistan Asia       1967    34.0 11537966      836.
##  5 Afghanistan Asia       1972    36.1 13079460      740.
##  6 Afghanistan Asia       1977    38.4 14880372      786.
##  7 Afghanistan Asia       1982    39.9 12881816      978.
##  8 Afghanistan Asia       1987    40.8 13867957      852.
##  9 Afghanistan Asia       1992    41.7 16317921      649.
## 10 Afghanistan Asia       1997    41.8 22227415      635.
## # … with 1,694 more rows
It’s tibble-ness is why we get nice compact printing. For a reminder of the problems with base data frame printing, go type iris in the R Console (iris is a well-known data frame built into R).

The class() function tells you what type of data structure you’re dealing with. Note how gapminder’s class() includes tbl_df, tbl, and data.frame. This shows that tibbles are built on top of the data frame.

class(gapminder)

## [1] "tbl_df"     "tbl"        "data.frame"

There will be some functions, like print(), that know about tibbles and do something special. There will others that do not, like summary(). In which case the regular data frame treatment will happen, because every tibble is also a regular data frame. As a reminder, print() prints stuff to the console and summary() provides a statistical overview of your dataset.

To turn any data frame into a tibble use as_tibble():

as_tibble(iris)

## # A tibble: 150 x 5
##    Sepal.Length Sepal.Width Petal.Length Petal.Width Species
##           <dbl>       <dbl>        <dbl>       <dbl> <fct>  
##  1          5.1         3.5          1.4         0.2 setosa 
##  2          4.9         3            1.4         0.2 setosa 
##  3          4.7         3.2          1.3         0.2 setosa 
##  4          4.6         3.1          1.5         0.2 setosa 
##  5          5           3.6          1.4         0.2 setosa 
##  6          5.4         3.9          1.7         0.4 setosa 
##  7          4.6         3.4          1.4         0.3 setosa 
##  8          5           3.4          1.5         0.2 setosa 
##  9          4.4         2.9          1.4         0.2 setosa 
## 10          4.9         3.1          1.5         0.1 setosa 
## # … with 140 more rows
…
You are probably not impressed yet, but the magic will happen soon.

3.3.4 Select Columns with select()

Use select() to subset the data on variables or columns. Here’s a conventional call:

select(gapminder, year, lifeExp)

## # A tibble: 1,704 x 2
##     year lifeExp
##    <int>   <dbl>
##  1  1952    28.8
##  2  1957    30.3
##  3  1962    32.0
##  4  1967    34.0
##  5  1972    36.1
##  6  1977    38.4
##  7  1982    39.9
##  8  1987    40.8
##  9  1992    41.7
## 10  1997    41.8
## # … with 1,694 more rows
…
As you can see, this is way harder to read. That’s why the pipe operator is so useful.

An important note is that select does not actually filter any rows. It simply selects columns.

select() used alongisde everything() is also quite handy if you want to move variables within your data frame. The everything() function selects all variables not explicitly mentioned in select(). For example, let’s move year and continent to the front of the gapminder tibble:

select(gapminder, year, continent, everything())

## # A tibble: 1,704 x 6
##     year continent country     lifeExp      pop gdpPercap
##    <int> <fct>     <fct>         <dbl>    <int>     <dbl>
##  1  1952 Asia      Afghanistan    28.8  8425333      779.
##  2  1957 Asia      Afghanistan    30.3  9240934      821.
##  3  1962 Asia      Afghanistan    32.0 10267083      853.
##  4  1967 Asia      Afghanistan    34.0 11537966      836.
##  5  1972 Asia      Afghanistan    36.1 13079460      740.
##  6  1977 Asia      Afghanistan    38.4 14880372      786.
##  7  1982 Asia      Afghanistan    39.9 12881816      978.
##  8  1987 Asia      Afghanistan    40.8 13867957      852.
##  9  1992 Asia      Afghanistan    41.7 16317921      649.
## 10  1997 Asia      Afghanistan    41.8 22227415      635.
## # … with 1,694 more rows
…
