6 More dplyr | A Gentle Introduction to Data Science with R
…
… versus when we assign the output to a new variable, or overwritting one that already exists.

## store the output as an R object
my_precious <- my_gap %>% filter(country == "Canada")

6.2 Use mutate() to add new variables

Imagine we wanted to recover each country’s GDP. After all, the Gapminder data has a variable for population and GDP per capita. Let’s multiply them together to get the GDP of the whole country.

The mutate() function defines and inserts new variables into a data frame/tibble. You can refer to existing variables by name.

my_gap %>% mutate(gdp = pop * gdpPercap)

## # A tibble: 1,704 x 7
##    country     continent  year lifeExp      pop gdpPercap          gdp
##    <fct>       <fct>     <int>   <dbl>    <int>     <dbl>        <dbl>
##  1 Afghanistan Asia       1952    28.8  8425333      779.  6567086330.
##  2 Afghanistan Asia       1957    30.3  9240934      821.  7585448670.
##  3 Afghanistan Asia       1962    32.0 10267083      853.  8758855797.
##  4 Afghanistan Asia       1967    34.0 11537966      836.  9648014150.
##  5 Afghanistan Asia       1972    36.1 13079460      740.  9678553274.
##  6 Afghanistan Asia       1977    38.4 14880372      786. 11697659231.
##  7 Afghanistan Asia       1982    39.9 12881816      978. 12598563401.
##  8 Afghanistan Asia       1987    40.8 13867957      852. 11820990309.
##  9 Afghanistan Asia       1992    41.7 16317921      649. 10595901589.
## 10 Afghanistan Asia       1997    41.8 22227415      635. 14121995875.
## # … with 1,694 more rows

If you don’t want to add a new column to your tibble, you can use transmute(). It works just like mutate() except it only keeps the column(s) you specify.

Let’s save our output in a new tibble called gap_gdp. Recall that saving the return of functions generally suppresses printing to the console. If you want to see the output, either type or print the variable.

gap_gdp <- my_gap %>% transmute(country, gdp = pop * gdpPercap)
gap_gdp  # or use print(gap_gdp)

## # A tibble: 1,704 x 2
##    country              gdp
##    <fct>              <dbl>
##  1 Afghanistan  6567086330.
##  2 Afghanistan  7585448670.
##  3 Afghanistan  8758855797.
##  4 Afghanistan  9648014150.
##  5 Afghanistan  9678553274.
##  6 Afghanistan 11697659231.
##  7 Afghanistan 12598563401.
##  8 Afghanistan 11820990309.
##  9 Afghanistan 10595901589.
## 10 Afghanistan 14121995875.
## # … with 1,694 more rows
…
##     Min.  1st Qu.   Median     Mean  3rd Qu.     Max. 
## 0.007236 0.061648 0.171521 0.326659 0.446564 9.534690

The relative GDP per capita numbers are, in general, well below 1. We see that most of the countries covered by this dataset have substantially lower GDP per capita, relative to Canada, across the entire time period.

Remember: Trust No One. Including (especially?) yourself. Always try to find a way to check that you’ve done what meant to. Prepare to be horrified.

6.3 Use arrange() to row-order data

The arrange() function reorders rows in a data frame/tibble. Imagine you wanted this data ordered by year then country, as opposed to by country then year. Remember, to save the output, you must assign it to a variable.

my_gap %>% arrange(year, country)

## # A tibble: 1,704 x 7
##    country     continent  year lifeExp      pop gdpPercap gdpPercapRel
##    <fct>       <fct>     <int>   <dbl>    <int>     <dbl>        <dbl>
##  1 Afghanistan Asia       1952    28.8  8425333      779.       0.0686
##  2 Albania     Europe     1952    55.2  1282697     1601.       0.141 
##  3 Algeria     Africa     1952    43.1  9279525     2449.       0.215 
##  4 Angola      Africa     1952    30.0  4232095     3521.       0.310 
##  5 Argentina   Americas   1952    62.5 17876956     5911.       0.520 
##  6 Australia   Oceania    1952    69.1  8691212    10040.       0.883 
##  7 Austria     Europe     1952    66.8  6927772     6137.       0.540 
##  8 Bahrain     Asia       1952    50.9   120447     9867.       0.868 
##  9 Bangladesh  Asia       1952    37.5 46886859      684.       0.0602
## 10 Belgium     Europe     1952    68    8730405     8343.       0.734 
## # … with 1,694 more rows

Or maybe you want just the data from 2007, sorted on life expectancy?

my_gap %>%
  filter(year == 2007) %>%
  arrange(lifeExp)

## # A tibble: 142 x 7
##    country                continent  year lifeExp     pop gdpPercap gdpPercapRel
##    <fct>                  <fct>     <int>   <dbl>   <int>     <dbl>        <dbl>
##  1 Swaziland              Africa     2007    39.6  1.13e6     4513.       0.124 
##  2 Mozambique             Africa     2007    42.1  2.00e7      824.       0.0227
##  3 Zambia                 Africa     2007    42.4  1.17e7     1271.       0.0350
##  4 Sierra Leone           Africa     2007    42.6  6.14e6      863.       0.0237
##  5 Lesotho                Africa     2007    42.6  2.01e6     1569.       0.0432
##  6 Angola                 Africa     2007    42.7  1.24e7     4797.       0.132 
##  7 Zimbabwe               Africa     2007    43.5  1.23e7      470.       0.0129
##  8 Afghanistan            Asia       2007    43.8  3.19e7      975.       0.0268
##  9 Central African Repub… Africa     2007    44.7  4.37e6      706.       0.0194
## 10 Liberia                Africa     2007    45.7  3.19e6      415.       0.0114
## # … with 132 more rows

Oh, you’d like to sort on life expectancy in descending order? Then use desc().

my_gap %>%
  filter(year == 2007) %>%
  arrange(desc(lifeExp))

## # A tibble: 142 x 7
##    country          continent  year lifeExp       pop gdpPercap gdpPercapRel
##    <fct>            <fct>     <int>   <dbl>     <int>     <dbl>        <dbl>
##  1 Japan            Asia       2007    82.6 127467972    31656.        0.872
##  2 Hong Kong, China Asia       2007    82.2   6980412    39725.        1.09 
##  3 Iceland          Europe     2007    81.8    301931    36181.        0.996
##  4 Switzerland      Europe     2007    81.7   7554661    37506.        1.03 
##  5 Australia        Oceania    2007    81.2  20434176    34435.        0.948
##  6 Spain            Europe     2007    80.9  40448191    28821.        0.794
##  7 Sweden           Europe     2007    80.9   9031088    33860.        0.932
##  8 Israel           Asia       2007    80.7   6426679    25523.        0.703
##  9 France           Europe     2007    80.7  61083916    30470.        0.839
## 10 Canada           Americas   2007    80.7  33390141    36319.        1    
## # … with 132 more rows

I advise that your analyses NEVER rely on rows or variables being in a specific order. But it’s still true that human beings write the code and the interactive development process can be much nicer if you reorder the rows of your data as you go along. Also, once you are preparing tables for human eyeballs, it is imperative that you step up and take control of row order.

6.4 Use rename() to rename variables

When I started programming, I was a camelCase person, but now I’m all about snake_case. Let’s rename some variables!

my_gap %>%
  rename(life_exp = lifeExp,
         gdp_percap = gdpPercap,
         gdp_percap_rel = gdpPercapRel)

## # A tibble: 1,704 x 7
##    country     continent  year life_exp      pop gdp_percap gdp_percap_rel
##    <fct>       <fct>     <int>    <dbl>    <int>      <dbl>          <dbl>
##  1 Afghanistan Asia       1952     28.8  8425333       779.         0.0686
##  2 Afghanistan Asia       1957     30.3  9240934       821.         0.0657
##  3 Afghanistan Asia       1962     32.0 10267083       853.         0.0634
##  4 Afghanistan Asia       1967     34.0 11537966       836.         0.0520
##  5 Afghanistan Asia       1972     36.1 13079460       740.         0.0390
##  6 Afghanistan Asia       1977     38.4 14880372       786.         0.0356
##  7 Afghanistan Asia       1982     39.9 12881816       978.         0.0427
##  8 Afghanistan Asia       1987     40.8 13867957       852.         0.0320
##  9 Afghanistan Asia       1992     41.7 16317921       649.         0.0246
## 10 Afghanistan Asia       1997     41.8 22227415       635.         0.0219
## # … with 1,694 more rows
…
6.5.3 Computing with group-wise summaries

Don’t worry too much about this section if all the data wrangling is starting to become overwhelming – it’s mainly here for the curious.

Let’s make a new variable that is the years of life expectancy gained (lost) relative to 1952, for each individual country. We group by country and use mutate() to make a new variable. The first() function extracts the first value from a vector. Notice that first() is operating on the vector of life expectancies within each country group.

new_var <- my_gap %>%
  group_by(country) %>% 
  select(country, year, lifeExp) %>% 
  mutate(lifeExp_gain = lifeExp - first(lifeExp)) %>% 
  filter(year < 1963)
new_var

## # A tibble: 426 x 4
## # Groups:   country [142]
##    country      year lifeExp lifeExp_gain
##    <fct>       <int>   <dbl>        <dbl>
##  1 Afghanistan  1952    28.8         0   
##  2 Afghanistan  1957    30.3         1.53
##  3 Afghanistan  1962    32.0         3.20
##  4 Albania      1952    55.2         0   
##  5 Albania      1957    59.3         4.05
##  6 Albania      1962    64.8         9.59
##  7 Algeria      1952    43.1         0   
##  8 Algeria      1957    45.7         2.61
##  9 Algeria      1962    48.3         5.23
## 10 Angola       1952    30.0         0   
## # … with 416 more rows
…
6.5.4 Window functions (OPTIONAL)

Window functions take \(n\) inputs and give back \(n\) outputs. Furthermore, the output depends on all the values. So rank() is a window function but sum() is not. Here we use window functions based on ranks and offsets.

Let’s revisit the worst and best life expectancies in Asia over time, but retaining info about which country contributes these extreme values.

my_gap %>%
  filter(continent == "Asia") %>%
  select(year, country, lifeExp) %>%
  group_by(year) %>%
  filter(min_rank(desc(lifeExp)) < 2 | min_rank(lifeExp) < 2) %>% 
  arrange(year)

## # A tibble: 24 x 3
## # Groups:   year [12]
##     year country     lifeExp
##    <int> <fct>         <dbl>
##  1  1952 Afghanistan    28.8
##  2  1952 Israel         65.4
##  3  1957 Afghanistan    30.3
##  4  1957 Israel         67.8
##  5  1962 Afghanistan    32.0
##  6  1962 Israel         69.4
##  7  1967 Afghanistan    34.0
##  8  1967 Japan          71.4
##  9  1972 Afghanistan    36.1
## 10  1972 Japan          73.4
## # … with 14 more rows

We see that (min = Afghanistan, max = Japan) is the most frequent result, but Cambodia and Israel pop up at least once each as the min or max, respectively. That table should make you impatient for our upcoming work on tidying and reshaping data! Wouldn’t it be nice to have one row per year?

How did that actually work? First, I store and view a partial that leaves off the filter() statement. All of these operations should be familiar.

asia <- my_gap %>%
  filter(continent == "Asia") %>%
  select(year, country, lifeExp) %>%
  group_by(year)
asia

## # A tibble: 396 x 3
## # Groups:   year [12]
##     year country     lifeExp
##    <int> <fct>         <dbl>
##  1  1952 Afghanistan    28.8
##  2  1957 Afghanistan    30.3
##  3  1962 Afghanistan    32.0
##  4  1967 Afghanistan    34.0
##  5  1972 Afghanistan    36.1
##  6  1977 Afghanistan    38.4
##  7  1982 Afghanistan    39.9
##  8  1987 Afghanistan    40.8
##  9  1992 Afghanistan    41.7
## 10  1997 Afghanistan    41.8
## # … with 386 more rows
…
