4 More data frames | A Gentle Introduction to Data Science with R
…
install.packages("tidyverse")

Now load it:

library(tidyverse)
class(gapminder)

## [1] "tbl_df"     "tbl"        "data.frame"

We can now print gapminder! Notice that the class (type of data structure) of the gapminder object is a tibble, the tidyverse’s version of R’s data frame. A tibble is also a data frame.

gapminder

## # A tibble: 1,704 x 6
##    country     continent  year lifeExp      pop gdpPercap
##    <fct>       <fct>     <int>   <dbl>    <int>     <dbl>
##  1 Afghanistan Asia       1952    28.8  8425333      779.
##  2 Afghanistan Asia       1957    30.3  9240934      821.
##  3 Afghanistan Asia       1962    32.0 10267083      853.
##  4 Afghanistan Asia       1967    34.0 11537966      836.
##  5 Afghanistan Asia       1972    36.1 13079460      740.
##  6 Afghanistan Asia       1977    38.4 14880372      786.
##  7 Afghanistan Asia       1982    39.9 12881816      978.
##  8 Afghanistan Asia       1987    40.8 13867957      852.
##  9 Afghanistan Asia       1992    41.7 16317921      649.
## 10 Afghanistan Asia       1997    41.8 22227415      635.
## # … with 1,694 more rows
…
You are probably not impressed yet, but the magic will happen soon.

4.3.4 Select Columns with select()

Use select() to subset the data on variables or columns. Here’s a conventional call:

select(gapminder, year, lifeExp)

## # A tibble: 1,704 x 2
##     year lifeExp
##    <int>   <dbl>
##  1  1952    28.8
##  2  1957    30.3
##  3  1962    32.0
##  4  1967    34.0
##  5  1972    36.1
##  6  1977    38.4
##  7  1982    39.9
##  8  1987    40.8
##  9  1992    41.7
## 10  1997    41.8
## # … with 1,694 more rows
…
As you can see, this is way harder to read. That’s why the pipe operator is so useful.

An important note is that select does not actually filter any rows. It simply selects columns.

select() used alongisde everything() is also quite handy if you want to move variables within your data frame. The everything() function selects all variables not explicitly mentioned in select(). For example, let’s move year and continent to the front of the gapminder tibble:

select(gapminder, year, continent, everything())

## # A tibble: 1,704 x 6
##     year continent country     lifeExp      pop gdpPercap
##    <int> <fct>     <fct>         <dbl>    <int>     <dbl>
##  1  1952 Asia      Afghanistan    28.8  8425333      779.
##  2  1957 Asia      Afghanistan    30.3  9240934      821.
##  3  1962 Asia      Afghanistan    32.0 10267083      853.
##  4  1967 Asia      Afghanistan    34.0 11537966      836.
##  5  1972 Asia      Afghanistan    36.1 13079460      740.
##  6  1977 Asia      Afghanistan    38.4 14880372      786.
##  7  1982 Asia      Afghanistan    39.9 12881816      978.
##  8  1987 Asia      Afghanistan    40.8 13867957      852.
##  9  1992 Asia      Afghanistan    41.7 16317921      649.
## 10  1997 Asia      Afghanistan    41.8 22227415      635.
## # … with 1,694 more rows
…
